{
  "count": 37,
  "next": "http://localhost:8000/api/species/?page=2",
  "previous": null,
  "results": [
    {
      "name": "Human",
      "classification": "mammal",
      "designation": "sentient",
      "average_height": "180",
      "skin_colors": "caucasian, black, asian, hispanic",
      "hair_colors": "blonde, brown, black, red",
      "eye_colors": "brown, blue, green, hazel, grey, amber",
      "average_lifespan": "120",
      "homeworld": "http://localhost:8000/api/planets/9/",
      "language": "Galactic Basic",
      "people": [
        "http://localhost:8000/api/people/66/",
        "http://localhost:8000/api/people/67/",
        "http://localhost:8000/api/people/68/",
        "http://localhost:8000/api/people/74/"
      ],
      "films": [
        "http://localhost:8000/api/films/1/",
        "http://localhost:8000/api/films/2/",
        "http://localhost:8000/api/films/3/",
        "http://localhost:8000/api/films/4/",
        "http://localhost:8000/api/films/5/",
        "http://localhost:8000/api/films/6/"
      ],
      "created": "2014-12-10T13:52:11.567000Z",
      "edited": "2014-12-20T21:36:42.136000Z",
      "url": "http://localhost:8000/api/species/1/"
    },
    {
      "name": "Droid",
      "classification": "artificial",
      "designation": "sentient",
      "average_height": "n/a",
      "skin_colors": "n/a",
      "hair_colors": "n/a",
      "eye_colors": "n/a",
      "average_lifespan": "indefinite",
      "homeworld": null,
      "language": "n/a",
      "people": [
        "http://localhost:8000/api/people/2/",
        "http://localhost:8000/api/people/3/",
        "http://localhost:8000/api/people/8/",
        "http://localhost:8000/api/people/23/"
      ],
      "films": [
        "http://localhost:8000/api/films/1/",
        "http://localhost:8000/api/films/2/",
        "http://localhost:8000/api/films/3/",
        "http://localhost:8000/api/films/4/",
        "http://localhost:8000/api/films/5/",
        "http://localhost:8000/api/films/6/"
      ],
      "created": "2014-12-10T15:16:16.259000Z",
      "edited": "2014-12-20T21:36:42.139000Z",
      "url": "http://localhost:8000/api/species/2/"
    },
    {
      "name": "Wookie",
      "classification": "mammal",
      "designation": "sentient",
      "average_height": "210",
      "skin_colors": "gray",
      "hair_colors": "black, brown",
      "eye_colors": "blue, green, yellow, brown, golden, red",
      "average_lifespan": "400",
      "homeworld": "http://localhost:8000/api/planets/14/",
      "language": "Shyriiwook",
      "people": [
        "http://localhost:8000/api/people/13/",
        "http://localhost:8000/api/people/80/"
      ],
      "films": [
        "http://localhost:8000/api/films/1/",
        "http://localhost:8000/api/films/2/",
        "http://localhost:8000/api/films/3/",
        "http://localhost:8000/api/films/6/"
      ],
      "created": "2014-12-10T16:44:31.486000Z",
      "edited": "2014-12-20T21:36:42.142000Z",
      "url": "http://localhost:8000/api/species/3/"
    },
    {
      "name": "Rodian",
      "classification": "sentient",
      "designation": "reptilian",
      "average_height": "170",
      "skin_colors": "green, blue",
      "hair_colors": "n/a",
      "eye_colors": "black",
      "average_lifespan": "unknown",
      "homeworld": "http://localhost:8000/api/planets/23/",
      "language": "Galatic Basic",
      "people": [
        "http://localhost:8000/api/people/15/"
      ],
      "films": [
        "http://localhost:8000/api/films/1/"
      ],
      "created": "2014-12-10T17:05:26.471000Z",
      "edited": "2014-12-20T21:36:42.144000Z",
      "url": "http://localhost:8000/api/species/4/"
    },
    {
      "name": "Hutt",
      "classification": "gastropod",
      "designation": "sentient",
      "average_height": "300",
      "skin_colors": "green, brown, tan",
      "hair_colors": "n/a",
      "eye_colors": "yellow, red",
      "average_lifespan": "1000",
      "homeworld": "http://localhost:8000/api/planets/24/",
      "language": "Huttese",
      "people": [
        "http://localhost:8000/api/people/16/"
      ],
      "films": [
        "http://localhost:8000/api/films/1/",
        "http://localhost:8000/api/films/3/"
      ],
      "created": "2014-12-10T17:12:50.410000Z",
      "edited": "2014-12-20T21:36:42.146000Z",
      "url": "http://localhost:8000/api/species/5/"
    },
    {
      "name": "Yoda's species",
      "classification": "mammal",
      "designation": "sentient",
      "average_height": "66",
      "skin_colors": "green, yellow",
      "hair_colors": "brown, white",
      "eye_colors": "brown, green, yellow",
      "average_lifespan": "900",
      "homeworld": "http://localhost:8000/api/planets/28/",
      "language": "Galactic basic",
      "people": [
        "http://localhost:8000/api/people/20/"
      ],
      "films": [
        "http://localhost:8000/api/films/2/",
        "http://localhost:8000/api/films/3/",
        "http://localhost:8000/api/films/4/",
        "http://localhost:8000/api/films/5/",
        "http://localhost:8000/api/films/6/"
      ],
      "created": "2014-12-15T12:27:22.877000Z",
      "edited": "2014-12-20T21:36:42.148000Z",
      "url": "http://localhost:8000/api/species/6/"
    },
    {
      "name": "Trandoshan",
      "classification": "reptile",
      "designation": "sentient",
      "average_height": "200",
      "skin_colors": "brown, green",
      "hair_colors": "none",
      "eye_colors": "yellow, orange",
      "average_lifespan": "unknown",
      "homeworld": "http://localhost:8000/api/planets/29/",
      "language": "Dosh",
      "people": [
        "http://localhost:8000/api/people/24/"
      ],
      "films": [
        "http://localhost:8000/api/films/2/"
      ],
      "created": "2014-12-15T13:07:47.704000Z",
      "edited": "2014-12-20T21:36:42.151000Z",
      "url": "http://localhost:8000/api/species/7/"
    },
    {
      "name": "Mon Calamari",
      "classification": "amphibian",
      "designation": "sentient",
      "average_height": "160",
      "skin_colors": "red, blue, brown, magenta",
      "hair_colors": "none",
      "eye_colors": "yellow",
      "average_lifespan": "unknown",
      "homeworld": "http://localhost:8000/api/planets/31/",
      "language": "Mon Calamarian",
      "people": [
        "http://localhost:8000/api/people/27/"
      ],
      "films": [
        "http://localhost:8000/api/films/3/"
      ],
      "created": "2014-12-18T11:09:52.263000Z",
      "edited": "2014-12-20T21:36:42.153000Z",
      "url": "http://localhost:8000/api/species/8/"
    },
    {
      "name": "Ewok",
      "classification": "mammal",
      "designation": "sentient",
      "average_height": "100",
      "skin_colors": "brown",
      "hair_colors": "white, brown, black",
      "eye_colors": "orange, brown",
      "average_lifespan": "unknown",
      "homeworld": "http://localhost:8000/api/planets/7/",
      "language": "Ewokese",
      "people": [
        "http://localhost:8000/api/people/30/"
      ],
      "films": [
        "http://localhost:8000/api/films/3/"
      ],
      "created": "2014-12-18T11:22:00.285000Z",
      "edited": "2014-12-20T21:36:42.155000Z",
      "url": "http://localhost:8000/api/species/9/"
    },
    {
      "name": "Sullustan",
      "classification": "mammal",
      "designation": "sentient",
      "average_height": "180",
      "skin_colors": "pale",
      "hair_colors": "none",
      "eye_colors": "black",
      "average_lifespan": "unknown",
      "homeworld": "http://localhost:8000/api/planets/33/",
      "language": "Sullutese",
      "people": [
        "http://localhost:8000/api/people/31/"
      ],
      "films": [
        "http://localhost:8000/api/films/3/"
      ],
      "created": "2014-12-18T11:26:20.103000Z",
      "edited": "2014-12-20T21:36:42.157000Z",
      "url": "http://localhost:8000/api/species/10/"
    }
  ]
}